<svg xmlns="http://www.w3.org/2000/svg" xmlns:xlink="http://www.w3.org/1999/xlink" width="33" height="33" viewBox="0 0 33 33">
  <defs>
    <clipPath id="clip-path">
      <rect id="Rectangle_62" data-name="Rectangle 62" width="33" height="33" fill="#fff"/>
    </clipPath>
  </defs>
  <g id="Group_78" data-name="Group 78" transform="translate(0)">
    <g id="Group_74" data-name="Group 74" transform="translate(0)" clip-path="url(#clip-path)">
      <path id="Path_46" data-name="Path 46" d="M16.5,0A16.5,16.5,0,1,0,33,16.5,16.5,16.5,0,0,0,16.5,0m0,31.219A14.719,14.719,0,1,1,31.219,16.5,14.719,14.719,0,0,1,16.5,31.219" fill="#fff"/>
      <path id="Path_47" data-name="Path 47" d="M46.2,38.17A8.029,8.029,0,1,0,54.228,46.2,8.029,8.029,0,0,0,46.2,38.17M39.9,46.2a6.3,6.3,0,0,1,5.249-6.214V52.413A6.3,6.3,0,0,1,39.9,46.2m7.357,6.214V39.985a6.3,6.3,0,0,1,0,12.428" transform="translate(-29.699 -29.699)" fill="#fff"/>
    </g>
  </g>
</svg>
