<svg xmlns="http://www.w3.org/2000/svg" width="27.889" height="33.858" viewBox="0 0 27.889 33.858">
  <g id="Group_73" data-name="Group 73" transform="translate(0 0)">
    <path id="Path_41" data-name="Path 41" d="M231.375,35.583h-20.93a3.483,3.483,0,0,1-3.479-3.479V5.2a3.483,3.483,0,0,1,3.479-3.479h14.47l9.939,9.9V32.1a3.483,3.483,0,0,1-3.479,3.479M210.445,3.518A1.688,1.688,0,0,0,208.759,5.2V32.1a1.688,1.688,0,0,0,1.686,1.686h20.93a1.688,1.688,0,0,0,1.686-1.686V12.368l-8.887-8.85Z" transform="translate(-206.966 -1.725)" fill="#bbb"/>
    <path id="Path_42" data-name="Path 42" d="M291.9,16.008h-7.882a2.392,2.392,0,0,1-2.389-2.389V5.737h1.793v7.882a.6.6,0,0,0,.6.6H291.9Z" transform="translate(-264.945 -4.841)" fill="#bbb"/>
    <path id="Path_43" data-name="Path 43" d="M237.025,75.792a1.9,1.9,0,0,1-.81.771,2.948,2.948,0,0,1-1.391.293h-1.142v2.616h-1.367V72.658h2.509a3.033,3.033,0,0,1,1.347.273,1.908,1.908,0,0,1,.835.752,2.206,2.206,0,0,1,.019,2.109m-1.42-.3a.953.953,0,0,0,.273-.727q0-1-1.113-1h-1.084v1.982h1.084a1.184,1.184,0,0,0,.839-.259" transform="translate(-226.65 -56.808)" fill="#bbb"/>
    <path id="Path_44" data-name="Path 44" d="M263.586,73.079a3,3,0,0,1,1.259,1.2,3.564,3.564,0,0,1,.444,1.8,3.51,3.51,0,0,1-.444,1.792,3.016,3.016,0,0,1-1.259,1.186,4.068,4.068,0,0,1-1.889.42h-2.382V72.659H261.7a4.071,4.071,0,0,1,1.889.42m-.278,4.647a2.231,2.231,0,0,0,.586-1.65,2.282,2.282,0,0,0-.586-1.664,2.213,2.213,0,0,0-1.66-.6h-.967v4.5h.967a2.245,2.245,0,0,0,1.66-.586" transform="translate(-247.618 -56.809)" fill="#bbb"/>
    <path id="Path_45" data-name="Path 45" d="M295.285,72.658v1.1h-2.841v1.748h2.177v1.083h-2.177v2.88h-1.367V72.658Z" transform="translate(-272.283 -56.809)" fill="#bbb"/>
  </g>
</svg>
