<svg id="Group_77" data-name="Group 77" xmlns="http://www.w3.org/2000/svg" width="35.993" height="35.429" viewBox="0 0 35.993 35.429">
  <rect id="Rectangle_56" data-name="Rectangle 56" width="3.796" height="19.572" transform="translate(3.796 11.429)" fill="#5ABE40"/>
  <rect id="Rectangle_57" data-name="Rectangle 57" width="3.796" height="31" transform="translate(22.27)" fill="#5ABE40"/>
  <rect id="Rectangle_58" data-name="Rectangle 58" width="3.796" height="19.572" transform="translate(28.849 11.429)" fill="#5ABE40"/>
  <rect id="Rectangle_59" data-name="Rectangle 59" width="3.796" height="25.286" transform="translate(15.69 5.714)" fill="#5ABE40"/>
  <rect id="Rectangle_60" data-name="Rectangle 60" width="3.796" height="13" transform="translate(9.743 18)" fill="#5ABE40"/>
  <rect id="Rectangle_61" data-name="Rectangle 61" width="35.993" height="1.645" transform="translate(0 33.784)" fill="#5ABE40"/>
</svg>
