<svg xmlns="http://www.w3.org/2000/svg" xmlns:xlink="http://www.w3.org/1999/xlink" width="17.931" height="17.86" viewBox="0 0 17.931 17.86">
  <defs>
    <clipPath id="clip-path">
      <rect id="Rectangle_72" data-name="Rectangle 72" width="17.931" height="17.86" transform="translate(0 0)" fill="none"/>
    </clipPath>
  </defs>
  <g id="Group_94" data-name="Group 94" transform="translate(0 0)">
    <g id="Group_93" data-name="Group 93" transform="translate(0 0)" clip-path="url(#clip-path)">
      <path id="Path_87" data-name="Path 87" d="M25.442,3.971a3.618,3.618,0,0,0-2.776-.4c.239-.246.472-.491.711-.731.567-.573,1.095-1.2,1.713-1.707A4.289,4.289,0,0,1,29.819.41a4.093,4.093,0,0,1,2.208,5.008,4.793,4.793,0,0,1-1.16,1.928c-1.44,1.448-2.875,2.9-4.334,4.33a4.393,4.393,0,0,1-5.54.564,3.11,3.11,0,0,1-.677-.6,1.115,1.115,0,0,1,1.649-1.486,1.915,1.915,0,0,0,1.713.515,2.511,2.511,0,0,0,1.361-.719c1.4-1.382,2.807-2.758,4.2-4.151a2.17,2.17,0,0,0,.688-2.013A1.932,1.932,0,0,0,27.1,2.463a3.8,3.8,0,0,0-1.1.908c-.191.2-.383.406-.566.6" transform="translate(-14.297 0)" fill="#fff"/>
      <path id="Path_88" data-name="Path 88" d="M6.5,27.006a3.653,3.653,0,0,0,2.733.415s.007.017,0,.022c-.709.72-1.382,1.483-2.138,2.15a4.38,4.38,0,0,1-5.05.511A4.151,4.151,0,0,1,.708,24.191a5.241,5.241,0,0,1,.715-.9c1.33-1.33,2.664-2.655,4.018-3.96a4.367,4.367,0,0,1,3.5-1.3A4,4,0,0,1,11.5,19.183a1.112,1.112,0,0,1,.065,1.56,1.144,1.144,0,0,1-1.611.1,2.072,2.072,0,0,0-2.893.056c-.818.76-1.6,1.56-2.4,2.343-.553.544-1.109,1.086-1.656,1.635a2.354,2.354,0,0,0-.737,1.677A1.919,1.919,0,0,0,4.682,28.39a2.582,2.582,0,0,0,1.238-.755l.583-.629" transform="translate(0 -12.819)" fill="#fff"/>
    </g>
  </g>
</svg>
